{
    "items": [{
        "album": {
            "album_type": "ALBUM",
            "artists": [{
                "external_urls": {
                    "spotify": "https://open.spotify.com/artist/2YFBqMMiIIL4XyiEwqySUQ"
                },
                "href": "https://api.spotify.com/v1/artists/2YFBqMMiIIL4XyiEwqySUQ",
                "id": "2YFBqMMiIIL4XyiEwqySUQ",
                "name": "Protomartyr",
                "type": "artist",
                "uri": "spotify:artist:2YFBqMMiIIL4XyiEwqySUQ"
            }],
            "external_urls": {
                "spotify": "https://open.spotify.com/album/3oNSWUAqB7CCTSH1zdlrXO"
            },
            "href": "https://api.spotify.com/v1/albums/3oNSWUAqB7CCTSH1zdlrXO",
            "id": "3oNSWUAqB7CCTSH1zdlrXO",
            "images": [{
                "height": 640,
                "url": "https://i.scdn.co/image/9b57cac3a98c4b3ae6ad83f8df83048a041a5ddd",
                "width": 640
            }, {
                "height": 300,
                "url": "https://i.scdn.co/image/a8167f240496240cffaad7400262032209996e8c",
                "width": 300
            }, {
                "height": 64,
                "url": "https://i.scdn.co/image/47ab123bdb374e1d6737f41afa726a63e399eced",
                "width": 64
            }],
            "name": "The Agent Intellect",
            "release_date": "2015-10-09",
            "release_date_precision": "day",
            "type": "album",
            "uri": "spotify:album:3oNSWUAqB7CCTSH1zdlrXO"
        },
        "artists": [{
            "external_urls": {
                "spotify": "https://open.spotify.com/artist/2YFBqMMiIIL4XyiEwqySUQ"
            },
            "href": "https://api.spotify.com/v1/artists/2YFBqMMiIIL4XyiEwqySUQ",
            "id": "2YFBqMMiIIL4XyiEwqySUQ",
            "name": "Protomartyr",
            "type": "artist",
            "uri": "spotify:artist:2YFBqMMiIIL4XyiEwqySUQ"
        }],
        "disc_number": 1,
        "duration_ms": 271386,
        "explicit": False,
        "external_ids": {
            "isrc": "USHF31509105"
        },
        "external_urls": {
            "spotify": "https://open.spotify.com/track/3px7bE2OuvLHJHLxpZMgF6"
        },
        "href": "https://api.spotify.com/v1/tracks/3px7bE2OuvLHJHLxpZMgF6",
        "id": "3px7bE2OuvLHJHLxpZMgF6",
        "is_local": False,
        "is_playable": True,
        "name": "Pontiac 87",
        "popularity": 41,
        "preview_url": "https://p.scdn.co/mp3-preview/6ac527b350e64b85bff2102b7d6557454009b16d?cid=null",
        "track_number": 5,
        "type": "track",
        "uri": "spotify:track:3px7bE2OuvLHJHLxpZMgF6"
    }],
    "total": 50,
    "limit": 1,
    "offset": 0,
    "href": "https://api.spotify.com/v1/me/top/tracks?limit=1&offset=0",
    "previous": None,
    "next": "https://api.spotify.com/v1/me/top/tracks?limit=1&offset=1"
}